{
    "key": "group_57975b549b7b9",
    "title": "Header Content",
    "fields": [
        {
            "tabs": "all",
            "toolbar": "full",
            "media_upload": 1,
            "default_value": "",
            "delay": 0,
            "key": "field_57a8874efd803",
            "label": "Content in middle of the header",
            "name": "header-free-content",
            "type": "wysiwyg",
            "instructions": "",
            "required": 0,
            "conditional_logic": 0,
            "wrapper": {
                "width": "",
                "class": "",
                "id": ""
            }
        },
        {
            "sub_fields": [
                {
                    "default_value": "",
                    "maxlength": "",
                    "placeholder": "",
                    "prepend": "",
                    "append": "",
                    "key": "field_57975b95d6ead",
                    "label": "Title",
                    "name": "title",
                    "type": "text",
                    "instructions": "",
                    "required": 0,
                    "conditional_logic": 0,
                    "wrapper": {
                        "width": "",
                        "class": "",
                        "id": ""
                    },
                    "readonly": 0,
                    "disabled": 0
                },
                {
                    "default_value": "",
                    "maxlength": "",
                    "placeholder": "",
                    "prepend": "",
                    "append": "",
                    "key": "field_57975ba7d6eae",
                    "label": "Button Text",
                    "name": "button_text",
                    "type": "text",
                    "instructions": "",
                    "required": 0,
                    "conditional_logic": 0,
                    "wrapper": {
                        "width": "",
                        "class": "",
                        "id": ""
                    },
                    "readonly": 0,
                    "disabled": 0
                },
                {
                    "default_value": "",
                    "placeholder": "",
                    "key": "field_57975bafd6eaf",
                    "label": "Button URL",
                    "name": "button_url",
                    "type": "url",
                    "instructions": "",
                    "required": 0,
                    "conditional_logic": 0,
                    "wrapper": {
                        "width": "",
                        "class": "",
                        "id": ""
                    }
                }
            ],
            "min": 0,
            "max": 0,
            "layout": "table",
            "button_label": "Add Row",
            "collapsed": "",
            "key": "field_57975b75d6eac",
            "label": "Rotating Content",
            "name": "rotating_content",
            "type": "repeater",
            "instructions": "",
            "required": 0,
            "conditional_logic": 0,
            "wrapper": {
                "width": "",
                "class": "",
                "id": ""
            }
        },
        {
            "default_value": "",
            "placeholder": "",
            "key": "field_57975c00d6eb0",
            "label": "Twitter URL",
            "name": "twitter_url",
            "type": "url",
            "instructions": "",
            "required": "",
            "conditional_logic": "",
            "wrapper": {
                "width": "",
                "class": "",
                "id": ""
            }
        },
        {
            "default_value": "",
            "placeholder": "",
            "key": "field_57975c1ed6eb1",
            "label": "LinkedIn URL",
            "name": "linkedin_url",
            "type": "url",
            "instructions": "",
            "required": "",
            "conditional_logic": "",
            "wrapper": {
                "width": "",
                "class": "",
                "id": ""
            }
        },
        {
            "default_value": "",
            "placeholder": "",
            "key": "field_57975c3ed6eb2",
            "label": "Media URL",
            "name": "media_url",
            "type": "url",
            "instructions": "",
            "required": "",
            "conditional_logic": "",
            "wrapper": {
                "width": "",
                "class": "",
                "id": ""
            }
        },
        {
            "default_value": "",
            "placeholder": "",
            "key": "field_57975c53d6eb3",
            "label": "Facebook URL",
            "name": "facebook_url",
            "type": "url",
            "instructions": "",
            "required": "",
            "conditional_logic": "",
            "wrapper": {
                "width": "",
                "class": "",
                "id": ""
            }
        },
        {
            "default_value": "",
            "maxlength": "",
            "placeholder": "",
            "prepend": "",
            "append": "",
            "key": "field_579762d031adb",
            "label": "Header Button Text",
            "name": "header_button",
            "type": "text",
            "instructions": "The button under login and register buttons on the header",
            "required": 0,
            "conditional_logic": 0,
            "wrapper": {
                "width": "",
                "class": "",
                "id": ""
            },
            "readonly": 0,
            "disabled": 0
        },
        {
            "default_value": "",
            "placeholder": "",
            "key": "field_579762f531adc",
            "label": "Header Button URL",
            "name": "header_button_url",
            "type": "url",
            "instructions": "The button under login and register buttons on the header",
            "required": 0,
            "conditional_logic": 0,
            "wrapper": {
                "width": "",
                "class": "",
                "id": ""
            }
        },
        {
            "default_value": "",
            "maxlength": "",
            "placeholder": "",
            "prepend": "",
            "append": "",
            "key": "field_57a88bb6cc691",
            "label": "2nd Header Button Text",
            "name": "header_button_two",
            "type": "text",
            "instructions": "The button under login and register buttons on the header",
            "required": 0,
            "conditional_logic": 0,
            "wrapper": {
                "width": "",
                "class": "",
                "id": ""
            },
            "readonly": 0,
            "disabled": 0
        },
        {
            "default_value": "",
            "placeholder": "",
            "key": "field_57a88bbdcc692",
            "label": "2nd Header Button URL",
            "name": "header_button_url_two",
            "type": "url",
            "instructions": "The button under login and register buttons on the header",
            "required": 0,
            "conditional_logic": 0,
            "wrapper": {
                "width": "",
                "class": "",
                "id": ""
            }
        }
    ],
    "location": [
        [
            {
                "param": "options_page",
                "operator": "==",
                "value": "acf-options-site-options"
            }
        ]
    ],
    "menu_order": 0,
    "position": "normal",
    "style": "default",
    "label_placement": "top",
    "instruction_placement": "label",
    "hide_on_screen": "",
    "active": 1,
    "description": "",
    "modified": 1480520696
}