{
    "key": "group_579877a91147d",
    "title": "User Picture",
    "fields": [
        {
            "return_format": "array",
            "preview_size": "medium",
            "library": "all",
            "min_width": "",
            "min_height": "",
            "min_size": "",
            "max_width": "",
            "max_height": "",
            "max_size": "",
            "mime_types": "",
            "key": "field_579877c6d8b5e",
            "label": "Profile Picture",
            "name": "profile_picture",
            "type": "image",
            "instructions": "",
            "required": 0,
            "conditional_logic": 0,
            "wrapper": {
                "width": "",
                "class": "",
                "id": ""
            }
        }
    ],
    "location": [
        [
            {
                "param": "user_form",
                "operator": "==",
                "value": "edit"
            },
            {
                "param": "user_role",
                "operator": "==",
                "value": "administrator"
            }
        ],
        [
            {
                "param": "user_role",
                "operator": "==",
                "value": "editor"
            },
            {
                "param": "user_form",
                "operator": "==",
                "value": "edit"
            }
        ],
        [
            {
                "param": "user_form",
                "operator": "==",
                "value": "edit"
            },
            {
                "param": "user_role",
                "operator": "==",
                "value": "author"
            }
        ]
    ],
    "menu_order": 0,
    "position": "acf_after_title",
    "style": "default",
    "label_placement": "top",
    "instruction_placement": "label",
    "hide_on_screen": "",
    "active": 1,
    "description": "",
    "modified": 1480521838
}