{
    "key": "group_57e3dffec5496",
    "title": "Stakeholder Admin Email",
    "fields": [
        {
            "default_value": "",
            "maxlength": "",
            "placeholder": "",
            "prepend": "",
            "append": "",
            "key": "field_57e3e0204f6ac",
            "label": "Who receives emails when Stakeholder activates their microsite?",
            "name": "stakeholder_activates_email",
            "type": "text",
            "instructions": "Insert email addresses separated with a comma. i.e mariojaconelli@gmail.com, martinstewwart@bipsolutions.com, victoria.clare@promarkmedia.co.uk, vicky.maggiani@promarkmedia.co.uk",
            "required": 0,
            "conditional_logic": 0,
            "wrapper": {
                "width": "",
                "class": "",
                "id": ""
            }
        },
        {
            "default_value": "",
            "maxlength": "",
            "placeholder": "",
            "prepend": "",
            "append": "",
            "key": "field_57e3e0de4f6ad",
            "label": "Who receives emails when a stakeholder publishes a post for moderation?",
            "name": "stakeholder_newpost_email",
            "type": "text",
            "instructions": "Insert email addresses separated with a comma. i.e mariojaconelli@gmail.com, martinstewwart@bipsolutions.com, victoria.clare@promarkmedia.co.uk, vicky.maggiani@promarkmedia.co.uk",
            "required": 0,
            "conditional_logic": 0,
            "wrapper": {
                "width": "",
                "class": "",
                "id": ""
            }
        }
    ],
    "location": [
        [
            {
                "param": "options_page",
                "operator": "==",
                "value": "acf-options-site-options"
            }
        ]
    ],
    "menu_order": 0,
    "position": "normal",
    "style": "default",
    "label_placement": "top",
    "instruction_placement": "label",
    "hide_on_screen": "",
    "active": 1,
    "description": "",
    "modified": 1480521172
}